tiledata_tiles:
	dc.l	$00111100	; Tile #0
	dc.l	$01000010
	dc.l	$00111001
	dc.l	$01001001
	dc.l	$01001001
	dc.l	$01001001
	dc.l	$00110110
	dc.l	$00000000
	dc.l	$22222222	; Tile #1
	dc.l	$22222222
	dc.l	$22333333
	dc.l	$22333333
	dc.l	$22333333
	dc.l	$22333333
	dc.l	$22333322
	dc.l	$22333322
	dc.l	$22222222	; Tile #2
	dc.l	$22222222
	dc.l	$33333322
	dc.l	$33333322
	dc.l	$33333322
	dc.l	$33333322
	dc.l	$22333322
	dc.l	$22333322
	dc.l	$22333322	; Tile #3
	dc.l	$22333322
	dc.l	$33333322
	dc.l	$33333322
	dc.l	$33333322
	dc.l	$33333322
	dc.l	$22222222
	dc.l	$22222222
	dc.l	$22333322	; Tile #4
	dc.l	$22333322
	dc.l	$22333333
	dc.l	$22333333
	dc.l	$22333333
	dc.l	$22333333
	dc.l	$22222222
	dc.l	$22222222
	dc.l	$00111111	; Tile #5
	dc.l	$00110000
	dc.l	$00110000
	dc.l	$00111110
	dc.l	$00110000
	dc.l	$00110000
	dc.l	$00111111
	dc.l	$00000000
	dc.l	$00000000	; Tile #6
	dc.l	$00444400
	dc.l	$04555540
	dc.l	$04566540
	dc.l	$04566540
	dc.l	$04555540
	dc.l	$00444400
	dc.l	$00000000
	dc.l	$00111110	; Tile #7
	dc.l	$01110011
	dc.l	$01100000
	dc.l	$01100111
	dc.l	$01100011
	dc.l	$01110011
	dc.l	$00111110
	dc.l	$00000000
	dc.l	$01100110	; Tile #8
	dc.l	$01100110
	dc.l	$01100110
	dc.l	$01111110
	dc.l	$01100110
	dc.l	$01100110
	dc.l	$01100110
	dc.l	$00000000
	dc.l	$01111110	; Tile #9
	dc.l	$00011000
	dc.l	$00011000
	dc.l	$00011000
	dc.l	$00011000
	dc.l	$00011000
	dc.l	$01111110
	dc.l	$00000000
	dc.l	$00001100	; Tile #10
	dc.l	$00001100
	dc.l	$00001100
	dc.l	$00001100
	dc.l	$11001100
	dc.l	$11001100
	dc.l	$01111000
	dc.l	$00000000
	dc.l	$01100011	; Tile #11
	dc.l	$01100110
	dc.l	$01101100
	dc.l	$01111000
	dc.l	$01101100
	dc.l	$01100110
	dc.l	$01100011
	dc.l	$00000000
	dc.l	$01100000	; Tile #12
	dc.l	$01100000
	dc.l	$01100000
	dc.l	$01100000
	dc.l	$01100000
	dc.l	$01100000
	dc.l	$01111111
	dc.l	$00000000
	dc.l	$01100011	; Tile #13
	dc.l	$01110111
	dc.l	$01111111
	dc.l	$01101011
	dc.l	$01101011
	dc.l	$01100011
	dc.l	$01100011
	dc.l	$00000000
	dc.l	$01100011	; Tile #14
	dc.l	$01110011
	dc.l	$01111011
	dc.l	$01111111
	dc.l	$01101111
	dc.l	$01100111
	dc.l	$01100011
	dc.l	$00000000
	dc.l	$00111110	; Tile #15
	dc.l	$01100011
	dc.l	$01100011
	dc.l	$01100011
	dc.l	$01100011
	dc.l	$01100011
	dc.l	$00111110
	dc.l	$00000000
	dc.l	$01111110	; Tile #16
	dc.l	$01100011
	dc.l	$01100011
	dc.l	$01111110
	dc.l	$01100000
	dc.l	$01100000
	dc.l	$01100000
	dc.l	$00000000
	dc.l	$00111110	; Tile #17
	dc.l	$01100011
	dc.l	$01100011
	dc.l	$01100011
	dc.l	$01101111
	dc.l	$01100011
	dc.l	$00111111
	dc.l	$00000000
	dc.l	$01111110	; Tile #18
	dc.l	$01100011
	dc.l	$01100011
	dc.l	$01111110
	dc.l	$01101000
	dc.l	$01100110
	dc.l	$01100111
	dc.l	$00000000
	dc.l	$00111110	; Tile #19
	dc.l	$01100011
	dc.l	$01110000
	dc.l	$00111110
	dc.l	$00000111
	dc.l	$01100011
	dc.l	$00111110
	dc.l	$00000000
	dc.l	$22222222	; Tile #20
	dc.l	$22222222
	dc.l	$33333333
	dc.l	$33333333
	dc.l	$33333333
	dc.l	$33333333
	dc.l	$22333322
	dc.l	$22333322
	dc.l	$01100110	; Tile #21
	dc.l	$01100110
	dc.l	$01100110
	dc.l	$01100110
	dc.l	$01100110
	dc.l	$01100110
	dc.l	$00111100
	dc.l	$00000000
	dc.l	$01100011	; Tile #22
	dc.l	$01100011
	dc.l	$01100011
	dc.l	$00110110
	dc.l	$00110110
	dc.l	$00011100
	dc.l	$00011100
	dc.l	$00000000
	dc.l	$22333322	; Tile #23
	dc.l	$22333322
	dc.l	$22333322
	dc.l	$22333322
	dc.l	$22333322
	dc.l	$22333322
	dc.l	$22333322
	dc.l	$22333322
	dc.l	$22333322	; Tile #24
	dc.l	$22333322
	dc.l	$33333333
	dc.l	$33333333
	dc.l	$33333333
	dc.l	$33333333
	dc.l	$22333322
	dc.l	$22333322
	dc.l	$01100110	; Tile #25
	dc.l	$01100110
	dc.l	$01100110
	dc.l	$00111100
	dc.l	$00011000
	dc.l	$00011000
	dc.l	$00011000
	dc.l	$00000000
	dc.l	$01111111	; Tile #26
	dc.l	$00000111
	dc.l	$00001110
	dc.l	$00011100
	dc.l	$00111000
	dc.l	$01110000
	dc.l	$01111111
	dc.l	$00000000
	dc.l	$00111000	; Tile #27
	dc.l	$00100000
	dc.l	$00100000
	dc.l	$00100000
	dc.l	$00100000
	dc.l	$00100000
	dc.l	$00111000
	dc.l	$00000000
	dc.l	$10000000	; Tile #28
	dc.l	$01000000
	dc.l	$00100000
	dc.l	$00010000
	dc.l	$00001000
	dc.l	$00000100
	dc.l	$00000010
	dc.l	$00000000
	dc.l	$00011100	; Tile #29
	dc.l	$00000100
	dc.l	$00000100
	dc.l	$00000100
	dc.l	$00000100
	dc.l	$00000100
	dc.l	$00011100
	dc.l	$00000000
	dc.l	$00000000	; Tile #30
	dc.l	$00000000
	dc.l	$00001000
	dc.l	$00010100
	dc.l	$00100010
	dc.l	$01000001
	dc.l	$00000000
	dc.l	$00000000
	dc.l	$00000000	; Tile #31
	dc.l	$00000000
	dc.l	$00000000
	dc.l	$00000000
	dc.l	$00000000
	dc.l	$00000000
	dc.l	$01111111
	dc.l	$00000000
	dc.l	$00000000	; Tile #32
	dc.l	$00000000
	dc.l	$00000000
	dc.l	$00011000
	dc.l	$00011000
	dc.l	$00000000
	dc.l	$00000000
	dc.l	$00000000
	dc.l	$00000000	; Tile #33
	dc.l	$00000000
	dc.l	$00111100
	dc.l	$01000110
	dc.l	$00111110
	dc.l	$01100110
	dc.l	$00111011
	dc.l	$00000000
	dc.l	$01100000	; Tile #34
	dc.l	$01100000
	dc.l	$01101100
	dc.l	$01111110
	dc.l	$01100110
	dc.l	$01100110
	dc.l	$01111100
	dc.l	$00000000
	dc.l	$00000000	; Tile #35
	dc.l	$00000000
	dc.l	$00111100
	dc.l	$01100110
	dc.l	$01100000
	dc.l	$01100110
	dc.l	$00111100
	dc.l	$00000000
	dc.l	$00000110	; Tile #36
	dc.l	$00000110
	dc.l	$00111110
	dc.l	$01100110
	dc.l	$01100110
	dc.l	$01110110
	dc.l	$00111110
	dc.l	$00000000
	dc.l	$00000000	; Tile #37
	dc.l	$00000000
	dc.l	$00111100
	dc.l	$01100110
	dc.l	$01111110
	dc.l	$01100000
	dc.l	$00111100
	dc.l	$00000000
	dc.l	$00000000	; Tile #38
	dc.l	$00011100
	dc.l	$00110110
	dc.l	$01111000
	dc.l	$00110000
	dc.l	$00110000
	dc.l	$00110000
	dc.l	$00000000
	dc.l	$00000000	; Tile #39
	dc.l	$00000000
	dc.l	$00111100
	dc.l	$01100110
	dc.l	$01100110
	dc.l	$00111110
	dc.l	$00000110
	dc.l	$00111100
	dc.l	$00110000	; Tile #40
	dc.l	$00110000
	dc.l	$00111100
	dc.l	$00110110
	dc.l	$00110110
	dc.l	$00110110
	dc.l	$00110110
	dc.l	$00000000
	dc.l	$00011000	; Tile #41
	dc.l	$00000000
	dc.l	$00011000
	dc.l	$00011000
	dc.l	$00011000
	dc.l	$00011000
	dc.l	$00011000
	dc.l	$00000000
	dc.l	$00001100	; Tile #42
	dc.l	$00000000
	dc.l	$00001100
	dc.l	$00001100
	dc.l	$00001100
	dc.l	$01101100
	dc.l	$01111100
	dc.l	$00111000
	dc.l	$00000000	; Tile #43
	dc.l	$00110011
	dc.l	$00110110
	dc.l	$00111100
	dc.l	$00111100
	dc.l	$00110110
	dc.l	$00110011
	dc.l	$00000000
	dc.l	$00011000	; Tile #44
	dc.l	$00011000
	dc.l	$00011000
	dc.l	$00011000
	dc.l	$00011000
	dc.l	$00011000
	dc.l	$00011000
	dc.l	$00000000
	dc.l	$00000000	; Tile #45
	dc.l	$00000000
	dc.l	$01110110
	dc.l	$01101101
	dc.l	$01101101
	dc.l	$01101101
	dc.l	$01101101
	dc.l	$00000000
	dc.l	$00000000	; Tile #46
	dc.l	$00000000
	dc.l	$00111100
	dc.l	$00110010
	dc.l	$00110010
	dc.l	$00110010
	dc.l	$00110010
	dc.l	$00000000
	dc.l	$00000000	; Tile #47
	dc.l	$00000000
	dc.l	$00111100
	dc.l	$01100110
	dc.l	$01100110
	dc.l	$01100110
	dc.l	$00111100
	dc.l	$00000000
	dc.l	$00000000	; Tile #48
	dc.l	$00000000
	dc.l	$01111100
	dc.l	$01100110
	dc.l	$01100110
	dc.l	$01110110
	dc.l	$01101100
	dc.l	$01100000
	dc.l	$00000000	; Tile #49
	dc.l	$00000000
	dc.l	$00111110
	dc.l	$01100110
	dc.l	$01100110
	dc.l	$01101110
	dc.l	$00110110
	dc.l	$00000110
	dc.l	$00000000	; Tile #50
	dc.l	$00000000
	dc.l	$00110110
	dc.l	$00111010
	dc.l	$00110000
	dc.l	$00110000
	dc.l	$00110000
	dc.l	$00000000
	dc.l	$00000000	; Tile #51
	dc.l	$00000000
	dc.l	$00011110
	dc.l	$00110000
	dc.l	$00011100
	dc.l	$00000110
	dc.l	$00111100
	dc.l	$00000000
	dc.l	$22333322	; Tile #52
	dc.l	$22333322
	dc.l	$33333333
	dc.l	$33333333
	dc.l	$33333333
	dc.l	$33333333
	dc.l	$22222222
	dc.l	$22222222
	dc.l	$00000000	; Tile #53
	dc.l	$00000000
	dc.l	$01100110
	dc.l	$01100110
	dc.l	$01100110
	dc.l	$01100110
	dc.l	$00111101
	dc.l	$00000000
	dc.l	$00000000	; Tile #54
	dc.l	$00000000
	dc.l	$01100011
	dc.l	$01100011
	dc.l	$00110110
	dc.l	$00110110
	dc.l	$00011100
	dc.l	$00000000
	dc.l	$22222222	; Tile #55
	dc.l	$22222222
	dc.l	$33333333
	dc.l	$33333333
	dc.l	$33333333
	dc.l	$33333333
	dc.l	$22222222
	dc.l	$22222222
	dc.l	$00000000	; Tile #56
	dc.l	$00000000
	dc.l	$01100110
	dc.l	$00111100
	dc.l	$00011000
	dc.l	$00111100
	dc.l	$01100110
	dc.l	$00000000
	dc.l	$00000000	; Tile #57
	dc.l	$00000000
	dc.l	$01100011
	dc.l	$01100011
	dc.l	$00110110
	dc.l	$00011100
	dc.l	$00011000
	dc.l	$00110000
	dc.l	$00000000	; Tile #58
	dc.l	$00000000
	dc.l	$01111110
	dc.l	$00001100
	dc.l	$00011000
	dc.l	$00110000
	dc.l	$01111110
	dc.l	$00000000
	dc.l	$00777700	; Tile #59
	dc.l	$07A99A70
	dc.l	$87ABBA78
	dc.l	$879BB978
	dc.l	$878BB878
	dc.l	$889BB988
	dc.l	$079BB970
	dc.l	$07799770
	dc.l	$00888800	; Tile #60
	dc.l	$77877770
	dc.l	$79989AA7
	dc.l	$9BBBBB97
	dc.l	$9BBBBB97
	dc.l	$79989AA7
	dc.l	$77877770
	dc.l	$00888800
	dc.l	$07799770	; Tile #61
	dc.l	$079BB970
	dc.l	$889BB988
	dc.l	$878BB878
	dc.l	$879BB978
	dc.l	$87ABBA78
	dc.l	$07A99A70
	dc.l	$00777700
	dc.l	$00888800	; Tile #62
	dc.l	$07777877
	dc.l	$7AA98997
	dc.l	$79BBBBB9
	dc.l	$79BBBBB9
	dc.l	$7AA98997
	dc.l	$07777877
	dc.l	$00888800
	dc.l	$00777700	; Tile #63
	dc.l	$07799770
	dc.l	$779CC977
	dc.l	$79CDDC97
	dc.l	$79CDDC97
	dc.l	$779CC977
	dc.l	$07799770
	dc.l	$00777700
